{
	"info": {
		"_postman_id": "ed46c5ec-d82c-4b3c-95a2-e76d1e3df243",
		"name": "heady",
		"schema": "https://schema.getpostman.com/json/collection/v2.1.0/collection.json"
	},
	"item": [
		{
			"name": "addCategory(Parent)",
			"request": {
				"method": "POST",
				"header": [
					{
						"key": "Content-Type",
						"value": "application/json",
						"type": "text"
					}
				],
				"body": {
					"mode": "raw",
					"raw": "{\n\t\"category\" : \"transportations\"\n}"
				},
				"url": {
					"raw": "http://127.0.0.1:3112/addCategory",
					"protocol": "http",
					"host": [
						"127",
						"0",
						"0",
						"1"
					],
					"port": "3112",
					"path": [
						"addCategory"
					]
				}
			},
			"response": []
		},
		{
			"name": "addCategory to category",
			"request": {
				"method": "POST",
				"header": [
					{
						"key": "Content-Type",
						"value": "application/json",
						"type": "text"
					}
				],
				"body": {
					"mode": "raw",
					"raw": "{\n\t\"category\" : \"metro\",\n\t\"parentCategory\" : \"5cd16200dca06d6927b0a9c6\"\n}"
				},
				"url": {
					"raw": "http://127.0.0.1:3112/addCategory",
					"protocol": "http",
					"host": [
						"127",
						"0",
						"0",
						"1"
					],
					"port": "3112",
					"path": [
						"addCategory"
					]
				}
			},
			"response": []
		},
		{
			"name": "addProduct to categories",
			"request": {
				"method": "POST",
				"header": [
					{
						"key": "Content-Type",
						"value": "application/json",
						"type": "text"
					}
				],
				"body": {
					"mode": "raw",
					"raw": "{\n\t\"name\" : \"bus\",\n\t\"price\" : \"5 lacs\",\n\t\"category_ids\" : [\"5cd161f0dca06d6927b0a9c4\"]\n}"
				},
				"url": {
					"raw": "http://127.0.0.1:3112/addProduct",
					"protocol": "http",
					"host": [
						"127",
						"0",
						"0",
						"1"
					],
					"port": "3112",
					"path": [
						"addProduct"
					]
				}
			},
			"response": []
		},
		{
			"name": "addProductToCategory or categories",
			"request": {
				"method": "POST",
				"header": [
					{
						"key": "Content-Type",
						"value": "application/json",
						"type": "text"
					}
				],
				"body": {
					"mode": "raw",
					"raw": "{\n\t\"productId\" : \"5cd163f0dca06d6927b0a9cd\",\n\t\"categoryIds\" : [\"5cd161f9dca06d6927b0a9c5\"]\n}"
				},
				"url": {
					"raw": "http://127.0.0.1:3112/addProductToCategory",
					"protocol": "http",
					"host": [
						"127",
						"0",
						"0",
						"1"
					],
					"port": "3112",
					"path": [
						"addProductToCategory"
					]
				}
			},
			"response": []
		},
		{
			"name": "updateProduct",
			"request": {
				"method": "POST",
				"header": [
					{
						"key": "Content-Type",
						"value": "application/json",
						"type": "text"
					}
				],
				"body": {
					"mode": "raw",
					"raw": "{\n\t\"id\" : \"5cd163f0dca06d6927b0a9cd\",\n\t\"data\" : {\n\t\t\"name\" : \"truck\",\n\t\t\"price\" : \"10 lacs\"\n\t}\n}"
				},
				"url": {
					"raw": "http://127.0.0.1:3112/updateProduct",
					"protocol": "http",
					"host": [
						"127",
						"0",
						"0",
						"1"
					],
					"port": "3112",
					"path": [
						"updateProduct"
					]
				}
			},
			"response": []
		},
		{
			"name": "getProducts based on category",
			"protocolProfileBehavior": {
				"disableBodyPruning": true
			},
			"request": {
				"method": "GET",
				"header": [
					{
						"key": "Content-Type",
						"value": "application/json",
						"type": "text"
					}
				],
				"body": {
					"mode": "raw",
					"raw": "{\n\t\"id\" : \"5cd163f0dca06d6927b0a9cd\",\n\t\"data\" : {\n\t\t\"name\" : \"truck\",\n\t\t\"price\" : \"10 lacs\"\n\t}\n}"
				},
				"url": {
					"raw": "http://127.0.0.1:3112/getProducts?categoryId=5cd161f0dca06d6927b0a9c4",
					"protocol": "http",
					"host": [
						"127",
						"0",
						"0",
						"1"
					],
					"port": "3112",
					"path": [
						"getProducts"
					],
					"query": [
						{
							"key": "categoryId",
							"value": "5cd161f0dca06d6927b0a9c4"
						}
					]
				}
			},
			"response": []
		},
		{
			"name": "getCategories",
			"protocolProfileBehavior": {
				"disableBodyPruning": true
			},
			"request": {
				"method": "GET",
				"header": [
					{
						"key": "Content-Type",
						"value": "application/json",
						"type": "text"
					}
				],
				"body": {
					"mode": "raw",
					"raw": "{\n\t\"id\" : \"5cd163f0dca06d6927b0a9cd\",\n\t\"data\" : {\n\t\t\"name\" : \"truck\",\n\t\t\"price\" : \"10 lacs\"\n\t}\n}"
				},
				"url": {
					"raw": "http://127.0.0.1:3112/getCategories",
					"protocol": "http",
					"host": [
						"127",
						"0",
						"0",
						"1"
					],
					"port": "3112",
					"path": [
						"getCategories"
					]
				}
			},
			"response": []
		},
		{
			"name": "addCategory to product",
			"request": {
				"method": "POST",
				"header": [
					{
						"key": "Content-Type",
						"value": "application/json",
						"type": "text"
					}
				],
				"body": {
					"mode": "raw",
					"raw": "{\n\t\"category\" : \"comedy\",\n\t\"productId\" : \"5cd166c9dca06d6927b0a9d0\"\n}"
				},
				"url": {
					"raw": "http://127.0.0.1:3112/addCategory",
					"protocol": "http",
					"host": [
						"127",
						"0",
						"0",
						"1"
					],
					"port": "3112",
					"path": [
						"addCategory"
					]
				}
			},
			"response": []
		}
	]
}